Analisis Integrado
…
Respuesta

DNA_test %>% 
  mutate(res = list(estimate_contrasts(test,contrast = "Resp"))) %>% 
  unnest(res) %>% 
  select(-test,-data) %>% 
  mutate(padj = p.adjust(p, method = "fdr")) %>% 
  filter(padj < 0.05)

# A tibble: 46 × 11
# Groups:   GeneId [24]
   GeneId Level1 Level2 Difference  CI_low  CI_high     SE    df     z         p
   <chr>  <chr>  <chr>       <dbl>   <dbl>    <dbl>  <dbl> <dbl> <dbl>     <dbl>
 1 ABL2   NE     PE         -0.398 -0.572  -0.225   0.0724   Inf -5.50   1.15e-7
 2 ABL2   NE     RP         -0.404 -0.588  -0.220   0.0767   Inf -5.26   2.82e-7
 3 AKT1   NE     PE         -0.329 -0.582  -0.0760  0.106    Inf -3.11   5.54e-3
 4 ARID1B PE     RP          0.132  0.0707  0.193   0.0255   Inf  5.17   7.01e-7
 5 ATM    NE     PE         -0.205 -0.381  -0.0290  0.0736   Inf -2.79   1.59e-2
 6 BCOR   NE     PE         -0.334 -0.486  -0.181   0.0636   Inf -5.25   4.67e-7
 7 BCOR   NE     RP         -0.316 -0.478  -0.155   0.0675   Inf -4.68   5.63e-6
 8 BCR    NE     PE         -0.199 -0.393  -0.00573 0.0808   Inf -2.46   2.74e-2
 9 BCR    NE     RP         -0.259 -0.466  -0.0515  0.0866   Inf -2.99   8.39e-3
10 BRAF   NE     PE         -0.374 -0.637  -0.111   0.110    Inf -3.41   1.31e-3
# … with 36 more rows, and 1 more variable: padj <dbl>
…
